{
	"fields": [
	  {
		"field_label": "Number",
		"field_db": "data_mobile",
		"order": "1",
		"type": "number",
		"web_list": true,
		"mandatory": true
	  },
	  {
		"field_label": "Name",
		"field_db": "data_name",
		"order": "2",
		"type": "text",
		"web_list": true,
		"mandatory": true
	  },
	  {
		"field_label": "Email",
		"field_db": "data_email",
		"order": "3",
		"type": "text",
		"web_list": true
	  },
	  {
		"field_label": "User data 1",
		"field_db": "data_user1",
		"order": "4",
		"web_list": true,
		"type": "text",
		"json": true,
		"json_key": "data_user1"
	  },
	  {
		"field_label": "User data 2",
		"field_db": "data_user1",
		"order": "5",
		"type": "text",
		"web_list": true,
		"json": true,
		"json_key": "data_user2"
	  },
	  {
		"field_label": "User data 3",
		"field_db": "data_user1",
		"order": "6",
		"type": "text",
		"web_list": true,
		"json": true,
		"json_key": "data_user3"
	  }
	]
  }